…
## # A tibble: 39 × 8
##    unit_name     type    pre_mspe post_mspe mspe_ratio  rank fishers_exact_pvalue z_score
##    <chr>         <chr>      <dbl>     <dbl>      <dbl> <int>                <dbl>   <dbl>
##  1 California    Treated     3.94     390.       99.0      1               0.0256  5.13  
##  2 Georgia       Donor       3.48     174.       49.8      2               0.0513  2.33  
##  3 Virginia      Donor       5.86     171.       29.2      3               0.0769  1.16  
##  4 Indiana       Donor      18.4      415.       22.6      4               0.103   0.787 
##  5 West Virginia Donor      14.3      287.       20.1      5               0.128   0.646 
##  6 Connecticut   Donor      27.3      335.       12.3      6               0.154   0.202 
##  7 Nebraska      Donor       6.47      54.3       8.40     7               0.179  -0.0189
##  8 Missouri      Donor       9.19      77.0       8.38     8               0.205  -0.0199
##  9 Texas         Donor      24.5      160.        6.54     9               0.231  -0.125 
## 10 Idaho         Donor      53.2      340.        6.39    10               0.256  -0.133 
## # … with 29 more rows

## # A tibble: 31 × 3
##    time_unit real_y synth_y
##        <dbl>  <dbl>   <dbl>
##  1      1970   123     116.
##  2      1971   121     118.
##  3      1972   124.    123.
##  4      1973   124.    124.
##  5      1974   127.    126.
##  6      1975   127.    127.
##  7      1976   128     127.
##  8      1977   126.    125.
##  9      1978   126.    125.
## 10      1979   122.    122.
## # … with 21 more rows

## # A tibble: 1,209 × 5
##    .id        .placebo time_unit real_y synth_y
##    <chr>         <dbl>     <dbl>  <dbl>   <dbl>
##  1 California        0      1970   123     116.
##  2 California        0      1971   121     118.
##  3 California        0      1972   124.    123.
##  4 California        0      1973   124.    124.
##  5 California        0      1974   127.    126.
##  6 California        0      1975   127.    127.
##  7 California        0      1976   128     127.
##  8 California        0      1977   126.    125.
##  9 California        0      1978   126.    125.
## 10 California        0      1979   122.    122.
## # … with 1,199 more rows

## # A tibble: 1,482 × 50
##    .id        .placebo .type   time_unit California `Rhode Island` Tennessee Indiana Nevada Louisiana Oklahoma `New Hampshire` `North Dakota` Arkansas Virginia
##    <chr>         <dbl> <chr>       <dbl>      <dbl>          <dbl>     <dbl>   <dbl>  <dbl>     <dbl>    <dbl>           <dbl>          <dbl>    <dbl>    <dbl>
##  1 California        0 treated      1970       123              NA        NA      NA     NA        NA       NA              NA             NA       NA       NA
##  2 California        0 treated      1971       121              NA        NA      NA     NA        NA       NA              NA             NA       NA       NA
##  3 California        0 treated      1972       124.             NA        NA      NA     NA        NA       NA              NA             NA       NA       NA
##  4 California        0 treated      1973       124.             NA        NA      NA     NA        NA       NA              NA             NA       NA       NA
##  5 California        0 treated      1974       127.             NA        NA      NA     NA        NA       NA              NA             NA       NA       NA
##  6 California        0 treated      1975       127.             NA        NA      NA     NA        NA       NA              NA             NA       NA       NA
##  7 California        0 treated      1976       128              NA        NA      NA     NA        NA       NA              NA             NA       NA       NA
##  8 California        0 treated      1977       126.             NA        NA      NA     NA        NA       NA              NA             NA       NA       NA
##  9 California        0 treated      1978       126.             NA        NA      NA     NA        NA       NA              NA             NA       NA       NA
## 10 California        0 treated      1979       122.             NA        NA      NA     NA        NA       NA              NA             NA       NA       NA
## # … with 1,472 more rows, and 35 more variables: Illinois <dbl>, South Dakota <dbl>, Utah <dbl>, Georgia <dbl>, Mississippi <dbl>, Colorado <dbl>,
## #   Minnesota <dbl>, Texas <dbl>, Kentucky <dbl>, Maine <dbl>, North Carolina <dbl>, Montana <dbl>, Vermont <dbl>, Iowa <dbl>, Connecticut <dbl>, Kansas <dbl>,
## #   Delaware <dbl>, Wisconsin <dbl>, Idaho <dbl>, New Mexico <dbl>, West Virginia <dbl>, Pennsylvania <dbl>, South Carolina <dbl>, Ohio <dbl>, Nebraska <dbl>,
## #   Missouri <dbl>, Alabama <dbl>, Wyoming <dbl>, .predictors <list>, .synthetic_control <list>, .unit_weights <list>, .predictor_weights <list>,
## #   .original_data <list>, .meta <list>, .loss <list>
…
