…
This blog is adopted from the tutorial of paneltools package.

https://yiqingxu.org/tutorials/panel.html#Installing_Packages

I added Wooldridge’s ETWFE, which is my favorate estimator with staggered DiD. It is easy to understand and implement. It also works with nonlinear model such as logit and poisson.

#devtools:: install_github("xuyiqing/paneltools")
library(paneltools)
data(paneltools)
library(tidyverse)
hh2019 <- as.tibble(hh2019)
hh2019

## # A tibble: 22,971 × 4
##      bfs  year nat_rate_ord indirect
##    <dbl> <dbl>        <dbl>    <dbl>
##  1     1  1991         0           0
##  2     1  1992         0           0
##  3     1  1993         0           0
##  4     1  1994         3.45        0
##  5     1  1995         0           0
##  6     1  1996         0           0
##  7     1  1997         0           0
##  8     1  1998         0           0
##  9     1  1999         0           0
## 10     1  2000         0           0
## # ℹ 22,961 more rows
…
