…
df <- df %>%
  group_by(t, l) |> 
  mutate(
    z_lk0 = z_lk0 / sum(z_lk0),
    z_lkt = (z_lkt / sum(z_lkt)),
    x_lt = sum(z_lkt * g_lkt)
  ) 

df

## # A tibble: 16,000 × 8
## # Groups:   t, l [4,000]
##        l     t     k z_lk0     g_kt z_lkt    g_lkt    x_lt
##    <int> <int> <int> <dbl>    <dbl> <dbl>    <dbl>   <dbl>
##  1     1     1     1 0.277  0.130   0.252  0.115    0.0400
##  2     1     1     2 0.428  0.146   0.302  0.291    0.0400
##  3     1     1     3 0.121 -0.165   0.321 -0.231    0.0400
##  4     1     1     4 0.174 -0.110   0.126 -0.0185   0.0400
##  5     1     2     1 0.277 -0.0289  0.160 -0.00619  0.0402
##  6     1     2     2 0.428 -0.00130 0.356  0.0560   0.0402
##  7     1     2     3 0.121  0.0433  0.272 -0.0590   0.0402
##  8     1     2     4 0.174  0.0840  0.212  0.176    0.0402
##  9     1     3     1 0.277 -0.101   0.237 -0.0361  -0.0738
## 10     1     3     2 0.428 -0.152   0.367 -0.126   -0.0738
## # ℹ 15,990 more rows
…
