…
library(tidyverse)
library(openxlsx)

url <- "https://feb.kuleuven.be/lien.lamey/public/rmodule/icecream.xlsx"
icecream <- read.xlsx(url)
icecream <- icecream %>% 
  pivot_longer(cols = starts_with("Individual"), names_to = "respondent", values_to = "rating") %>% # respondent keeps track of the respondent, rating will store the respondent's ratings, and we want to stack every variable that starts with Individual
  rename("profile" = "Observations") %>% # rename Observations to profile
  mutate(profile = factor(profile), respondent = factor(respondent),  # factorize identifiers
         Flavor = factor(Flavor), Packaging = factor(Packaging), Light = factor(Light), Organic = factor(Organic)) # factorize the ice cream attributes

icecream

## # A tibble: 150 × 7
##    profile   Flavor    Packaging       Light      Organic     respondent  rating
##    <fct>     <fct>     <fct>           <fct>      <fct>       <fct>        <dbl>
##  1 Profile 1 Raspberry Homemade waffle No low fat Not organic Individual…      1
##  2 Profile 1 Raspberry Homemade waffle No low fat Not organic Individual…      6
##  3 Profile 1 Raspberry Homemade waffle No low fat Not organic Individual…      5
##  4 Profile 1 Raspberry Homemade waffle No low fat Not organic Individual…      1
##  5 Profile 1 Raspberry Homemade waffle No low fat Not organic Individual…      2
##  6 Profile 1 Raspberry Homemade waffle No low fat Not organic Individual…      7
##  7 Profile 1 Raspberry Homemade waffle No low fat Not organic Individual…      7
##  8 Profile 1 Raspberry Homemade waffle No low fat Not organic Individual…      5
##  9 Profile 1 Raspberry Homemade waffle No low fat Not organic Individual…      1
## 10 Profile 1 Raspberry Homemade waffle No low fat Not organic Individual…     10
## # ℹ 140 more rows
…
