Premier League Soccer - Do you have win head-to-head matches to win a championship? - A Hugo website
…
england <- england %>%
  mutate(decade=10*(Season %/% 10))

tier1 <- england %>%
  filter(tier==1)

It seems to have data back to 1880. Let’s keep data for tier=1, which is nowadays called Premier League.

england %>%
  count(goaldif, sort=TRUE)

## # A tibble: 24 x 2
##    goaldif     n
##      <int> <int>
##  1       0 48980
##  2       1 42902
##  3       2 28777
##  4      -1 27398
##  5       3 15544
##  6      -2 12492
##  7       4  6938
##  8      -3  4525
##  9       5  2957
## 10      -4  1370
## # … with 14 more rows
…
